{
  "npmClient": "yarn",
  "packages": [
    "packages/*"
  ],
  "version": "1.0.0",
  "command": {
    "publish": {
      "registry": "https://gitlab.com/api/v4/projects/<your-project-id>/packages/npm/"
    }
  }
}
